{
  "columns":[
              {"name":"major_function_name","datatype":"text"},
              {"name":"cost_centre","datatype":"text"},
              {"name":"function_category","datatype":"text"}
            ],
  "unique_column" : [" cost_centre"],
  "table_column":[
               {"name":"major_function_name","datatype":"text"},
              {"name":"cost_centre","datatype":"text"},
              {"name":"function_category","datatype":"text"}
            ],
  "master_table_name": "major_service_functions",
  "master" : [
               {"name":"major_function_name","datatype":"text"},
              {"name":"cost_centre","datatype":"text"},
              {"name":"function_category","datatype":"text"}
            ]
}
