{
  "columns":[
              {"name":"department","datatype":"text"},
              {"name":"career_score","datatype":"text"},
              {"name":"alignment_score","datatype":"text"},
              {"name":"recognition_score","datatype":"text"},
              {"name":"empowerment_score","datatype":"float"},
              {"name":"strive_score","datatype":"float"},
              {"name":"net_mcares_score","datatype":"float"},
               {"name":"year","datatype":"integer"}
            ],
  "unique_column" : ["department,year"],
  "table_column" : [
            {"name":"department","datatype":"text"},
              {"name":"career_score","datatype":"text"},
              {"name":"alignment_score","datatype":"text"},
              {"name":"recognition_score","datatype":"text"},
              {"name":"empowerment_score","datatype":"float"},
              {"name":"strive_score","datatype":"float"},
              {"name":"net_mcares_score","datatype":"float"},
             {"name":"year","datatype":"integer"}
              ],
    "master_table_name": "mcares_score_department",
    "master" : [
             {"name":"department","datatype":"text"},
              {"name":"career_score","datatype":"text"},
              {"name":"alignment_score","datatype":"text"},
              {"name":"recognition_score","datatype":"text"},
              {"name":"empowerment_score","datatype":"float"},
              {"name":"strive_score","datatype":"float"},
              {"name":"net_mcares_score","datatype":"float"},
              {"name":"year","datatype":"integer"}
            ]
}

