{
  "columns":[
              {"name":"sapcode","datatype":"text"},
              {"name":"name_of_the_employee","datatype":"text"},
              {"name":"location","datatype":"text"},
              {"name":"month","datatype":"text"},
              {"name":"year","datatype":"text"},
              {"name":"department","datatype":"text"}
            ],
  "unique_column" : ["sapcode, year, month"],
  "table_column" : [

              {"name":"sapcode","datatype":"text"},
              {"name":"name_of_the_employee","datatype":"text"},
              {"name":"location","datatype":"text"},
              {"name":"month","datatype":"text"},
              {"name":"year","datatype":"text"},
              {"name":"department","datatype":"text"}
            ],
  "master_table_name": "star_performer_master",
  "master" : [
             {"name":"sapcode","datatype":"text"},
              {"name":"name_of_the_employee","datatype":"text"},
              {"name":"location","datatype":"text"},
              {"name":"month","datatype":"text"},
              {"name":"year","datatype":"text"},
              {"name":"department","datatype":"text"}
            ]
}

